[


  {
    "id": "5e3a68f3988a7c12e08f4910",
    "iscomment": true,
    "text": "Ipsum quis exercitation eiusmod esse anim id quis nisi fugiat velit sunt. Nisi ut consequat anim incididunt Lorem cupidatat esse occaecat pariatur consequat. Irure nostrud Lorem velit sint tempor voluptate do et qui duis veniam.",
    "created_at": "Thu Oct 12 1972 08:51:08 GMT+0000 (UTC)"

  },
  {
    "id": "5e3a68f3648e66c873327523",
    "text": "Cillum laboris minim minim consequat adipisicing consectetur aliqua occaecat laboris ullamco excepteur et veniam. Aute enim quis eiusmod quis nulla voluptate sunt quis pariatur non in duis culpa. Velit id nulla cupidatat esse.",
    "created_at": "Sun Dec 09 1973 14:00:07 GMT+0000 (UTC)",
    "iscomment": true
  },
  {
    "id": "5e3a68f3e65cf6749aa55693",
    "text": "Incididunt dolor cillum magna sunt aliquip ex id ipsum. Ad dolore Lorem velit officia consequat incididunt. Et nostrud enim anim duis elit occaecat nulla nisi cillum culpa.",
    "created_at": "Thu Jun 19 1997 03:19:21 GMT+0000 (UTC)",
    "iscomment": true
  },
  {
    "id": "5e3a68f3d5bb9ba0aab5c219",
    "text": "Qui Lorem sunt cupidatat Lorem ut ad non. Quis tempor aute excepteur nostrud Lorem in esse et dolore. Incididunt non tempor pariatur voluptate proident mollit commodo aute sint excepteur minim.",
    "created_at": "Sat Jun 27 2015 19:35:06 GMT+0000 (UTC)",
    "iscomment": true
  }
]
